Wyvern,Gryphon,Mole,Moose,Archer,Archer_Enrage,
2,2,2.5,2.5,3,3,
Wyvern,1.26e6,Kyouka,S.Kyaru,Misato,Akari,Illya
Wyvern,1.19e6,H.Misaki,Kyouka,S.Kyaru,Akari,Kokkoro
Wyvern,1.14e6,H.Misaki,Kyouka,S.Kyaru,Misato,Akari
Wyvern,1.11e6,Kyouka,S.Kyaru,Kyaru,Akari,Illya
Wyvern,1.10e6,Kyouka,S.Kyaru,Hatsune,Akari,Illya
Wyvern,1.05e6,Shiori,Mitsuki,S.Kokkoro,Makoto,Kaori
Gryphon,980e3,Arisa,S.Kokkoro,S.Tamaki,Makoto,Jun
Gryphon,895e3,S.Kokkoro,Yukari,Tomo,Makoto,Jun
Gryphon,886e3,Shiori,Mitsuki,S.Kokkoro,Makoto,Jun
Gryphon,872e3,S.Kokkoro,Yukari,Makoto,Kaori,Jun
Gryphon,799e3,Shiori,Yukari,Makoto,Kaori,Jun
Gryphon,782e3,S.Kokkoro,S.Tamaki,Makoto,Kaori,Jun
Gryphon,721e3,Mitsuki,S.Kokkoro,Makoto,Kaori,Jun
Mole,834e3,Kyouka,S.Kyaru,Misato,Akari,Illya
Mole,795e3,Kyouka,S.Kyaru,Misato,Suzuna,Illya
Mole,790e3,Yui,Suzuna,Arisa,H.Shinobu,Shinobu
Mole,782e3,Kyouka,Yui,Suzuna,Arisa,Shinobu
Mole,771e3,H.Misaki,Kyouka,S.Kyaru,Misato,Akari
Mole,766e3,Yui,Shiori,Suzuna,Arisa,Shinobu
Mole,762e3,Kyouka,Chika,Suzuna,Arisa,Shinobu
Moose,761e3,Mitsuki,S.Kokkoro,Makoto,Kaori,Jun
Moose,742e3,Mitsuki,Yukari,Makoto,Kaori,Jun
Archer,1.49e6,H.Misaki,Kyouka,S.Kyaru,Kyaru,Akari
Archer,1.36e6,H.Misaki,Kyouka,S.Kyaru,Akari,Kokkoro
Archer,1.36e6,Kyouka,S.Kyaru,Misato,Akari,Illya
Archer,1.34e6,H.Misaki,Kyouka,S.Kyaru,Misato,Akari
